right0,2
right1,2
right2,2
right3,2
right4,2
right5,2
right6,2
right7,2
right8,2
right9,2
right10,2
right11,2
right12,2
right13,2
right14,2
right15,2
right16,2
right17,2
right18,2
right19,2
right20,2
right21,2
right22,2
right23,2
right24,2
right25,2
right26,2
right27,2
right28,2
right29,2
right30,2
right31,2
right32,2
right33,2
right34,2
right35,2
right36,2
right37,2
right38,2
right39,2
right40,2
right41,2
right42,2
right43,2
right44,2
right45,2
right46,2
right47,2
right48,2
right49,2
right50,2
right51,2
right52,2
right53,2
right54,2
right55,2
right56,2
right57,2
right58,2
right59,2
right60,2
right61,2
right62,2
right63,2
right64,2
right65,2
right66,2
right67,2
right68,2
right69,2
right70,2
right71,2
right72,2
right73,2
right74,2
right75,2
right76,2
right77,2
right78,2
right79,2
right80,2
right81,2
right82,2
right83,2
right84,2
right85,2
right86,2
right87,2
right88,2
right89,2
right90,2
right91,2
right92,2
right93,2
right94,2
right95,2
right96,2
right97,2
right98,2
right99,2
right100,2
right101,2
right102,2
right103,2
right104,2
right105,2
right106,2
right107,2
right108,2
right109,2
right110,2
right111,2
right112,2
right113,2
right114,2
right115,2
right116,2
right117,2
right118,2
right119,2
right120,2
right121,2
right122,2
right123,2
right124,2
right125,2
right126,2
right127,2
right128,2
right129,2
right130,2
right131,2
right132,2
right133,2
right134,2
right135,2
right136,2
right137,2
right138,2
right139,2
right140,2
right141,2
right142,2
right143,2
right144,2
right145,2
right146,2
right147,2
right148,2
right149,2
right150,2
right151,2
right152,2
right153,2
right154,2
right155,2
right156,2
right157,2
right158,2
right159,2
right160,2
right161,2
right162,2
right163,2
right164,2
right165,2
right166,2
right167,2
right168,2
right169,2
right170,2
right171,2
right172,2
right173,2
right174,2
right175,2
right176,2
right177,2
right178,2
right179,2
right180,2
right181,2
right182,2
right183,2
right184,2
right185,2
right186,2
right187,2
right188,2
right189,2
right190,2
right191,2
right192,2
right193,2
right194,2
right195,2
right196,2
right197,2
right198,2
right199,2
right200,2
right201,2
right202,2
right203,2
right204,2
right205,2
right206,2
right207,2
right208,2
right209,2
right210,2
right211,2
right212,2
right213,2
right214,2
right215,2
right216,2
right217,2
right218,2
right219,2
right220,2
right221,2
right222,2
right223,2
right224,2
right225,2
right226,2
right227,2
right228,2
right229,2
right230,2
right231,2
right232,2
right233,2
right234,2
right235,2
right236,2
right237,2
right238,2
right239,2
right240,2
right241,2
right242,2
right243,2
right244,2
right245,2
right246,2
right247,2
right248,2
right249,2
right250,2
right251,2
right252,2
right253,2
right254,2
right255,2
right256,2
right257,2
right258,2
right259,2
right260,2
right261,2
right262,2
right263,2
right264,2
right265,2
right266,2
right267,2
right268,2
right269,2
right270,2
right271,2
right272,2
right273,2
right274,2
right275,2
right276,2
right277,2
right278,2
right279,2
right280,2
right281,2
right282,2
right283,2
right284,2
right285,2
right286,2
right287,2
right288,2
right289,2
right290,2
right291,2
right292,2
right293,2
right294,2
right295,2
right296,2
right297,2
right298,2
right299,2
right300,2
right301,2
right302,2
right303,2
right304,2
right305,2
right306,2
right307,2
right308,2
right309,2
right310,2
right311,2
right312,2
right313,2
right314,2
right315,2
right316,2
right317,2
right318,2
right319,2
right320,2
right321,2
right322,2
right323,2
right324,2
right325,2
right326,2
right327,2
right328,2
right329,2
right330,2
right331,2
right332,2
right333,2
right334,2
right335,2
right336,2
right337,2
right338,2
right339,2
right340,2
right341,2
right342,2
right343,2
right344,2
right345,2
right346,2
right347,2
right348,2
right349,2
right350,2
right351,2
right352,2
right353,2
right354,2
right355,2
right356,2
right357,2
right358,2
right359,2
right360,2
right361,2
right362,2
right363,2
right364,2
right365,2
right366,2
right367,2
right368,2
right369,2
right370,2
right371,2
right372,2
right373,2
right374,2
right375,2
right376,2
right377,2
right378,2
right379,2
right380,2
right381,2
right382,2
right383,2
right384,2
right385,2
right386,2
right387,2
right388,2
right389,2
right390,2
right391,2
right392,2
right393,2
right394,2
right395,2
right396,2
right397,2
right398,2
right399,2
right400,2
right401,2
right402,2
right403,2
right404,2
right405,2
right406,2
right407,2
right408,2
right409,2
right410,2
right411,2
right412,2
right413,2
right414,2
right415,2
right416,2
right417,2
right418,2
right419,2
right420,2
right421,2
right422,2
right423,2
right424,2
right425,2
right426,2
right427,2
right428,2
right429,2
right430,2
right431,2
right432,2
right433,2
right434,2
right435,2
right436,2
right437,2
right438,2
right439,2
right440,2
right441,2
right442,2
right443,2
right444,2
right445,2
right446,2
right447,2
right448,2
right449,2
right450,2
right451,2
right452,2
right453,2
right454,2
right455,2
right456,2
right457,2
right458,2
right459,2
right460,2
right461,2
right462,2
right463,2
right464,2
right465,2
right466,2
right467,2
right468,2
right469,2
right470,2
right471,2
right472,2
right473,2
right474,2
right475,2
right476,2
right477,2
right478,2
right479,2
right480,2
right481,2
right482,2
right483,2
right484,2
right485,2
right486,2
right487,2
right488,2
right489,2
right490,2
right491,2
right492,2
right493,2
right494,2
right495,2
right496,2
right497,2
right498,2
right499,2
right500,2
right501,2
right502,2
right503,2
right504,2
right505,2
right506,2
right507,2
right508,2
right509,2
right510,2
right511,2
right512,2
right513,2
right514,2
right515,2
right516,2
right517,2
right518,2
right519,2
right520,2
right521,2
right522,2
right523,2
right524,2
right525,2
right526,2
right527,2
right528,2
right529,2
right530,2
right531,2
right532,2
right533,2
right534,2
right535,2
right536,2
right537,2
right538,2
right539,2
right540,2
right541,2
right542,2
right543,2
right544,2
right545,2
right546,2
right547,2
right548,2
right549,2
right550,2
right551,2
right552,2
right553,2
right554,2
right555,2
right556,2
right557,2
right558,2
right559,2
right560,2
right561,2
right562,2
right563,2
right564,2
right565,2
right566,2
right567,2
right568,2
right569,2
right570,2
right571,2
right572,2
right573,2
right574,2
right575,2
right576,2
right577,2
right578,2
right579,2
right580,2
right581,2
right582,2
right583,2
right584,2
right585,2
right586,2
right587,2
right588,2
right589,2
right590,2
right591,2
right592,2
right593,2
right594,2
right595,2
right596,2
right597,2
right598,2
right599,2
right600,2
right601,2
right602,2
right603,2
right604,2
right605,2
right606,2
right607,2
right608,2
right609,2
right610,2
right611,2
right612,2
right613,2
right614,2
right615,2
right616,2
right617,2
right618,2
right619,2
right620,2
right621,2
right622,2
right623,2
right624,2
right625,2
right626,2
right627,2
right628,2
right629,2
right630,2
right631,2
right632,2
right633,2
right634,2
right635,2
right636,2
right637,2
right638,2
right639,2
right640,2
right641,2
right642,2
right643,2
right644,2
right645,2
right646,2
right647,2
right648,2
right649,2
right650,2
right651,2
right652,2
right653,2
right654,2
right655,2
right656,2
right657,2
right658,2
right659,2
right660,2
right661,2
right662,2
right663,2
right664,2
right665,2
right666,2
right667,2
right668,2
right669,2
right670,2
right671,2
right672,2
right673,2
right674,2
right675,2
right676,2
right677,2
right678,2
right679,2
right680,2
right681,2
right682,2
right683,2
right684,2
right685,2
right686,2
right687,2
right688,2
right689,2
right690,2
right691,2
right692,2
right693,2
right694,2
right695,2
right696,2
right697,2
right698,2
right699,2
right700,2
right701,2
right702,2
right703,2
right704,2
right705,2
right706,2
right707,2
right708,2
right709,2
right710,2
right711,2
right712,2
right713,2
right714,2
right715,2
right716,2
right717,2
right718,2
right719,2
right720,2
right721,2
right722,2
right723,2
right724,2
right725,2
right726,2
right727,2
right728,2
right729,2
right730,2
right731,2
right732,2
right733,2
right734,2
right735,2
right736,2
right737,2
right738,2
right739,2
right740,2
right741,2
right742,2
right743,2
right744,2
right745,2
right746,2
right747,2
right748,2
right749,2
right750,2
right751,2
right752,2
right753,2
right754,2
right755,2
right756,2
right757,2
right758,2
right759,2
right760,2
right762,2
right763,2
right764,2
right765,2
right767,2
right768,2
right769,2
right770,2
right771,2
right772,2
right773,2
right774,2
right775,2
right776,2
right777,2
right778,2
right779,2
